pe\gob\minedu\perueduca\users\UsersApplication.class
pe\gob\minedu\perueduca\users\application\service\UserService.class
pe\gob\minedu\perueduca\users\application\jms\JmsOyente.class
pe\gob\minedu\perueduca\users\UsersConfiguration.class
