D:\workspace-upc-distribuidos-tbfinal\registro-reclamos\Codigo\backend\src\main\java\pe\gob\minedu\perueduca\users\application\reclamo\entity\Reniec.java
D:\workspace-upc-distribuidos-tbfinal\registro-reclamos\Codigo\backend\src\main\java\pe\gob\minedu\perueduca\users\application\service\UserService.java
D:\workspace-upc-distribuidos-tbfinal\registro-reclamos\Codigo\backend\src\main\java\pe\gob\minedu\perueduca\users\application\reclamo\entity\TbUbigeo.java
D:\workspace-upc-distribuidos-tbfinal\registro-reclamos\Codigo\backend\src\main\java\pe\gob\minedu\perueduca\users\application\reclamo\repository\TbUbigeoRepository.java
D:\workspace-upc-distribuidos-tbfinal\registro-reclamos\Codigo\backend\src\main\java\pe\gob\minedu\perueduca\users\application\controller\RegistroReclamoController.java
D:\workspace-upc-distribuidos-tbfinal\registro-reclamos\Codigo\backend\src\main\java\pe\gob\minedu\perueduca\users\application\reclamo\repository\ReclamoRepository.java
D:\workspace-upc-distribuidos-tbfinal\registro-reclamos\Codigo\backend\src\main\java\pe\gob\minedu\perueduca\users\application\service\ReclamoService.java
D:\workspace-upc-distribuidos-tbfinal\registro-reclamos\Codigo\backend\src\main\java\pe\gob\minedu\perueduca\users\application\service\ReniecService.java
D:\workspace-upc-distribuidos-tbfinal\registro-reclamos\Codigo\backend\src\main\java\pe\gob\minedu\perueduca\users\application\jms\JmsOyente.java
D:\workspace-upc-distribuidos-tbfinal\registro-reclamos\Codigo\backend\src\main\java\pe\gob\minedu\perueduca\users\UsersApplication.java
D:\workspace-upc-distribuidos-tbfinal\registro-reclamos\Codigo\backend\src\main\java\pe\gob\minedu\perueduca\users\application\reclamo\entity\ReclamoEntity.java
D:\workspace-upc-distribuidos-tbfinal\registro-reclamos\Codigo\backend\src\main\java\pe\gob\minedu\perueduca\users\UsersConfiguration.java
D:\workspace-upc-distribuidos-tbfinal\registro-reclamos\Codigo\backend\src\main\java\pe\gob\minedu\perueduca\users\application\reclamo\repository\ReniecRepository.java
D:\workspace-upc-distribuidos-tbfinal\registro-reclamos\Codigo\backend\src\main\java\pe\gob\minedu\perueduca\users\application\config\ReclamoDatasourceConfig.java
